tracefile.vcd
$scope module sim $end
$timescale 1 us $end
$scope module 0 $end
$var real 4 ! 0 $end
$var real 4 " 1 $end
$var real 4 # 2 $end
$var real 4 $ 3 $end
$upscope $end
$upscope $end
$enddefinitions $end
$dumpvars
r0 "
r0 !
r0 #
r0 $
$end
r0 $
r0 #
r0 "
r0 !
#1
r0 !
r0 $
r0 "
r0 #
r0.6000000238418579 #
r0 !
r0.6000000238418579 $
r0 "
#2
r0 !
r0.36000001430511475 $
r0 "
r0.36000001430511475 #
#3
r0.2160000205039978 #
r0.2160000205039978 $
r0 "
r0 !
r0 !
r0 "
r0.8160000443458557 $
r0.8160000443458557 #
#4
r0.4896000325679779 #
r0 "
r0 !
r0.4896000325679779 $
#5
r0 "
r0 !
r0.2937600314617157 #
r0.2937600314617157 $
#6
r0.17625603079795837 $
r0 !
r0 "
r0.17625603079795837 #
#7
r0.10575362294912338 #
r0.10575362294912338 $
r0 !
r0 "
#8
r0.06345217674970627 $
r0 "
r0 !
r0.06345217674970627 #
#9
r0.03807130828499794 #
r0.03807130828499794 $
r0 !
r0 "
#10
r0 "
r0.022842785343527794 #
r0 !
r0.022842785343527794 $
#11
r0.013705671764910221 $
r0 !
r0 "
r0.013705671764910221 #
#12
r0 "
r0.008223403245210648 #
r0.008223403245210648 $
r0 !
#13
r0 !
r0.004934042226523161 #
r0.004934042226523161 $
r0 "
#14
r0 !
r0 "
r0.00296042556874454 $
r0.00296042556874454 #
