tracefile.vcd
$scope module sim $end
$timescale 1 us $end
$scope module 0 $end
$var real 4 ! 0 $end
$var real 4 " 1 $end
$var real 4 # 2 $end
$var real 4 $ 3 $end
$upscope $end
$upscope $end
$enddefinitions $end
r0 #
r0 $
r0 "
r0 !
#1
r0 !
r0 $
r0 "
r0 #
r0 $
r0 #
r0 "
r0 !
r0 #
r0 $
r0 !
r0 "
#2
r0 !
r0 "
r0 $
r0 #
#3
r0 "
r0 !
r0 $
r0 #
r0 $
r0 "
r0 #
r0 !
r0 $
r0 #
r0 !
r0 "
#4
r0 #
r0 $
r0 !
r0 "
r0 $
r0 !
r0 #
r0 "
r0 #
r0 $
r0 "
r0 !
#5
r0 $
r0 !
r0 #
r0 "
#6
r0 #
r0 "
r0 $
r0 !
#7
r0 "
r0 #
r0 !
r0 $
#8
r0 !
r0 #
r0 $
r0 "
#9
r0 #
r0 $
r0 !
r0 "
#10
r0 $
r0 #
r0 "
r0 !
#11
r0 #
r0 $
r0 "
r0 !
#12
r0 "
r0 !
r0 #
r0 $
#13
r0 "
r0 #
r0 !
r0 $
#14
r0 #
r0 !
r0 "
r0 $
